{
	"info": {
		"_postman_id": "334de6d4-8884-4b19-99a8-12b5bac2320b",
		"name": "Servicios Entregable 1",
		"schema": "https://schema.getpostman.com/json/collection/v2.1.0/collection.json"
	},
	"item": [
		{
			"name": "Cliente",
			"item": [
				{
					"name": "Agregar Cliente",
					"event": [
						{
							"listen": "prerequest",
							"script": {
								"id": "f3f32b1c-8ba3-4fa7-b582-f479fa11a3ab",
								"exec": [
									"// Generar un documento aleatorio.",
									"const documento = Math.trunc(12345678 + Math.random() * 8888);",
									"",
									"",
									"// generar un nombre completo aleatorio.",
									"const apellidos = [\"Gonzalez\",\"Jimenez\",\"Ramirez\",\"Ortiz\",\"Perez\"];",
									"const nombres = [\"Juan\",\"Ana\",\"Graciela\",\"Roberto\",\"Jaime\"];",
									"const unApellido = apellidos[_.random(apellidos.length - 1)];",
									"const unNombre = nombres[_.random(nombres.length - 1)];",
									"const nombreCompleto = unNombre + \" \" + unApellido;",
									"",
									"",
									"const correo_e = unNombre + \".\" + unApellido + \"@micorreo.com\";",
									"",
									"",
									"const edad = _.random(18, 98);",
									"",
									"",
									"const a = 2021 - edad;",
									"const m = _.random(1, 12);",
									"const d = _.random(1, 28);",
									"const fechaNacimiento = a + \"/\" + m + \"/\" + d;",
									"",
									"",
									"const direccion = \"Santa Rosa de Lima N° \" + _.random(100,1079);",
									"",
									"",
									"const t1 = _.random(100,777);",
									"const t2 = _.random(100,777);",
									"const t3 = _.random(100,777);",
									"const telefono = t1 + \" \" + t2 + \" \" + t3;",
									"",
									"",
									"pm.globals.set(\"direccion\",direccion);",
									"pm.globals.set(\"telefono\", telefono);",
									"pm.globals.set(\"correo_electronico\", correo_e);",
									"pm.globals.set(\"nombreCompleto\", nombreCompleto);",
									"pm.globals.set(\"documento\", documento);",
									"pm.globals.set(\"edad\", edad);",
									"pm.globals.set(\"fechaNacimiento\", fechaNacimiento);",
									""
								],
								"type": "text/javascript"
							}
						}
					],
					"request": {
						"method": "POST",
						"header": [],
						"body": {
							"mode": "raw",
							"raw": "{\n    \"documento\":\"{{documento}}\",\n    \"nombre\":\"{{nombreCompleto}}\",\n    \"edad\":{{edad}},\n    \"fechaNacimiento\":\"{{fechaNacimiento}}\",\n    \"telefono\":\"{{telefono}}\",\n    \"correo\":\"{{correo_electronico}}\",\n    \"direccion\":\"{{direccion}}\"\n}",
							"options": {
								"raw": {
									"language": "json"
								}
							}
						},
						"url": {
							"raw": "http://localhost:9000/api/v1/clientes/",
							"protocol": "http",
							"host": [
								"localhost"
							],
							"port": "9000",
							"path": [
								"api",
								"v1",
								"clientes",
								""
							]
						}
					},
					"response": []
				},
				{
					"name": "Obtener Clientes",
					"request": {
						"method": "GET",
						"header": [],
						"url": {
							"raw": "http://localhost:9000/api/v1/clientes?pagina=1&cantidad=3",
							"protocol": "http",
							"host": [
								"localhost"
							],
							"port": "9000",
							"path": [
								"api",
								"v1",
								"clientes"
							],
							"query": [
								{
									"key": "pagina",
									"value": "1"
								},
								{
									"key": "cantidad",
									"value": "3"
								}
							]
						}
					},
					"response": []
				},
				{
					"name": "Reemplazar Cliente 12345678",
					"request": {
						"method": "PUT",
						"header": [],
						"body": {
							"mode": "raw",
							"raw": "{\n    \"documento\" : \"12347367\",\n    \"nombre\" : \"Juan Rodrigez Ledesma\",\n    \"edad\" : 40,\n    \"fechaNacimiento\": \"23/01/1981\",\n    \"cuentas\": []\n}\n",
							"options": {
								"raw": {
									"language": "json"
								}
							}
						},
						"url": {
							"raw": "http://localhost:9000/api/v1/clientes/12347367",
							"protocol": "http",
							"host": [
								"localhost"
							],
							"port": "9000",
							"path": [
								"api",
								"v1",
								"clientes",
								"12347367"
							]
						}
					},
					"response": []
				},
				{
					"name": "Reemplazar Cliente 12345678 Copy",
					"request": {
						"method": "PATCH",
						"header": [],
						"body": {
							"mode": "raw",
							"raw": "{\n    \"documento\" : \"98765432\",\n    \"edad\" : 39,\n    \"fechaNacimiento\": \"23/01/1982\"\n}\n",
							"options": {
								"raw": {
									"language": "json"
								}
							}
						},
						"url": {
							"raw": "http://localhost:9000/api/v1/clientes/12345678",
							"protocol": "http",
							"host": [
								"localhost"
							],
							"port": "9000",
							"path": [
								"api",
								"v1",
								"clientes",
								"12345678"
							]
						}
					},
					"response": []
				},
				{
					"name": "Obtener Cliente 12345678",
					"request": {
						"method": "GET",
						"header": [],
						"url": {
							"raw": "http://localhost:9000/api/v1/clientes/12345678",
							"protocol": "http",
							"host": [
								"localhost"
							],
							"port": "9000",
							"path": [
								"api",
								"v1",
								"clientes",
								"12345678"
							]
						}
					},
					"response": []
				},
				{
					"name": "Borrar Cliente 12345678",
					"event": [
						{
							"listen": "prerequest",
							"script": {
								"exec": [
									""
								],
								"type": "text/javascript",
								"id": "967ac01d-8da8-40ba-8614-f8de60974c20"
							}
						}
					],
					"request": {
						"method": "DELETE",
						"header": [],
						"url": {
							"raw": "http://localhost:9000/api/v1/clientes/12345678",
							"protocol": "http",
							"host": [
								"localhost"
							],
							"port": "9000",
							"path": [
								"api",
								"v1",
								"clientes",
								"12345678"
							]
						}
					},
					"response": []
				}
			],
			"protocolProfileBehavior": {}
		},
		{
			"name": "Cuenta",
			"item": [
				{
					"name": "Actualizar cuenta",
					"request": {
						"method": "PATCH",
						"header": [],
						"body": {
							"mode": "raw",
							"raw": "{\r\n    \"numero\": \"0011200048794857\",\r\n    \"moneda\": \"USD\"\r\n}",
							"options": {
								"raw": {
									"language": "json"
								}
							}
						},
						"url": {
							"raw": "http://localhost:9000/api/v1/cuentas/0011200048794857",
							"protocol": "http",
							"host": [
								"localhost"
							],
							"port": "9000",
							"path": [
								"api",
								"v1",
								"cuentas",
								"0011200048794857"
							]
						}
					},
					"response": []
				},
				{
					"name": "Crear cuenta ",
					"event": [
						{
							"listen": "prerequest",
							"script": {
								"id": "be435688-d703-49e9-bc99-54f9fd8c239c",
								"exec": [
									"// Generar un documento aleatorio.\",\t\t\t\t\t\t\t\r",
									"const numero = Math.trunc(1234567890000000 + Math.random() * 8888);\t\t\t\t\t\t\t\r",
									"\t\t\t\t\t\t\t\r",
									"// generar un nombre completo aleatorio.\",\t\t\t\t\t\t\t\r",
									"const monedas = [\"PEN\",\"USD\"];\t\t\r",
									"const unMoneda = monedas[_.random(monedas.length - 1)];\t\t\t\t\t\t\t\r",
									"const tipos = [\"Ahorro\",\"CtaFija\",\"CtaGanadora\"];\t\t\t\t\t\t\t\t\t\t\t\r",
									"const unTipo = tipos[_.random(tipos.length - 1)];\t\t\r",
									"const estados = [\"Activo\",\"Inactivo\"];\t\t\t\t\t\t\t\t\t\t\t\r",
									"const unEstado = estados[_.random(estados.length - 1)];\t\t\t\t\t\t\t\t\t\t\t\t\r",
									"\t\t\t\t\t\t\t\t\t\t\t\t\r",
									"\t\t\t\t\t\t\t\r",
									"const saldo = _.random(1000, 10000);\t\t\t\t\t\t\t\r",
									"\t\t\t\t\t\r",
									"\t\t\t\t\t\t\t\r",
									"const oficina = _.random(1000,777);\t\t\t\t\t\t\t\t\t\t\t\t\t\r",
									"\t\t\t\t\t\t\t\r",
									"pm.globals.set(\"numero\",numero);\t\t\t\t\t\t\t\r",
									"pm.globals.set(\"moneda\", unMoneda);\t\t\t\t\t\t\t\r",
									"pm.globals.set(\"saldo\", saldo);\t\t\t\t\t\t\t\r",
									"pm.globals.set(\"tipo\", unTipo);\t\t\t\t\t\t\t\r",
									"pm.globals.set(\"estado\", unEstado);\t\t\t\t\t\t\t\r",
									"pm.globals.set(\"oficina\", oficina);\t\r",
									"\r",
									"  console.log(\"numero\"+pm.variables.get(\"numero\"))\r",
									"  console.log(\"moneda\"+pm.variables.get(\"moneda\"))\r",
									"  console.log(\"saldo\"+pm.variables.get(\"saldo\"))\r",
									"  console.log(\"tipo\"+pm.variables.get(\"tipo\"))\r",
									"  console.log(\"estado\"+pm.variables.get(\"estado\"))\r",
									"  console.log(\"oficina\"+pm.variables.get(\"oficina\"))"
								],
								"type": "text/javascript"
							}
						}
					],
					"request": {
						"method": "POST",
						"header": [],
						"body": {
							"mode": "raw",
							"raw": "{\r\n    \"numero\": \"{{numero}}\",\r\n    \"moneda\": \"{{moneda}}\",\r\n    \"saldo\": \"{{saldo}}\",\r\n    \"tipo\": \"{{tipo}}\",\r\n    \"estado\": \"{{estado}}\",\r\n    \"oficina\": \"{{oficina}}\"\r\n}",
							"options": {
								"raw": {
									"language": "json"
								}
							}
						},
						"url": {
							"raw": "http://localhost:9000/api/v1/cuentas/",
							"protocol": "http",
							"host": [
								"localhost"
							],
							"port": "9000",
							"path": [
								"api",
								"v1",
								"cuentas",
								""
							]
						}
					},
					"response": []
				},
				{
					"name": "Listar cuentas",
					"request": {
						"method": "GET",
						"header": [],
						"url": {
							"raw": "http://localhost:9000/api/v1/cuentas/",
							"protocol": "http",
							"host": [
								"localhost"
							],
							"port": "9000",
							"path": [
								"api",
								"v1",
								"cuentas",
								""
							]
						}
					},
					"response": []
				},
				{
					"name": "Reemplazar cuenta",
					"request": {
						"method": "PUT",
						"header": [],
						"body": {
							"mode": "raw",
							"raw": "{\r\n    \"numero\": \"1234567890004206\",\r\n    \"moneda\": \"USD\",\r\n    \"saldo\": \"3200\",\r\n    \"tipo\": \"AHORRO\",\r\n    \"estado\": \"INACTIVO\",\r\n    \"oficina\": \"ATE\"\r\n}",
							"options": {
								"raw": {
									"language": "json"
								}
							}
						},
						"url": {
							"raw": "http://localhost:9000/api/v1/cuentas/1234567890004206",
							"protocol": "http",
							"host": [
								"localhost"
							],
							"port": "9000",
							"path": [
								"api",
								"v1",
								"cuentas",
								"1234567890004206"
							]
						}
					},
					"response": []
				},
				{
					"name": "Eliminar cuenta",
					"request": {
						"method": "DELETE",
						"header": [],
						"url": {
							"raw": "http://localhost:9000/api/v1/cuentas/",
							"protocol": "http",
							"host": [
								"localhost"
							],
							"port": "9000",
							"path": [
								"api",
								"v1",
								"cuentas",
								""
							]
						}
					},
					"response": []
				},
				{
					"name": "Obtener una cuenta",
					"request": {
						"method": "GET",
						"header": [],
						"url": {
							"raw": "http://localhost:9000/api/v1/cuentas/1234567890000687",
							"protocol": "http",
							"host": [
								"localhost"
							],
							"port": "9000",
							"path": [
								"api",
								"v1",
								"cuentas",
								"1234567890000687"
							]
						}
					},
					"response": []
				}
			],
			"protocolProfileBehavior": {}
		},
		{
			"name": "CuentaCliente",
			"item": [
				{
					"name": "Obtener Cuentas de un Cliente",
					"request": {
						"method": "GET",
						"header": [],
						"url": {
							"raw": "http://localhost:9000/api/v1/clientes/{{documentoCliente}}/cuentas/",
							"protocol": "http",
							"host": [
								"localhost"
							],
							"port": "9000",
							"path": [
								"api",
								"v1",
								"clientes",
								"{{documentoCliente}}",
								"cuentas",
								""
							]
						}
					},
					"response": []
				},
				{
					"name": "Obtener Cuentas Tal del Clinete Tal",
					"request": {
						"method": "GET",
						"header": [],
						"url": {
							"raw": "http://localhost:9000/api/v1/clientes/{{documentoCliente}}/cuentas/{{numeroCuenta}}",
							"protocol": "http",
							"host": [
								"localhost"
							],
							"port": "9000",
							"path": [
								"api",
								"v1",
								"clientes",
								"{{documentoCliente}}",
								"cuentas",
								"{{numeroCuenta}}"
							]
						}
					},
					"response": []
				},
				{
					"name": "Obtener Cuentas Tal del Clinete Tal Copy",
					"request": {
						"method": "DELETE",
						"header": [],
						"url": {
							"raw": "http://localhost:9000/api/v1/clientes/{{documentoCliente}}/cuentas/{{numeroCuenta}}",
							"protocol": "http",
							"host": [
								"localhost"
							],
							"port": "9000",
							"path": [
								"api",
								"v1",
								"clientes",
								"{{documentoCliente}}",
								"cuentas",
								"{{numeroCuenta}}"
							]
						}
					},
					"response": []
				},
				{
					"name": "Agregar Cuenta al Cliente Tal",
					"request": {
						"method": "POST",
						"header": [],
						"body": {
							"mode": "raw",
							"raw": "{\n    \"codigoCuenta\": {{numeroCuenta}}\n}\n",
							"options": {
								"raw": {
									"language": "json"
								}
							}
						},
						"url": {
							"raw": "http://localhost:9000/api/v1/clientes/{{documentoCliente}}/cuentas",
							"protocol": "http",
							"host": [
								"localhost"
							],
							"port": "9000",
							"path": [
								"api",
								"v1",
								"clientes",
								"{{documentoCliente}}",
								"cuentas"
							]
						}
					},
					"response": []
				},
				{
					"name": "Actualizar Cuentas cliente",
					"request": {
						"method": "PUT",
						"header": [],
						"body": {
							"mode": "raw",
							"raw": "{\r\n        \"numero\": \"1234567890003819\",\r\n        \"moneda\": \"USD\",\r\n        \"saldo\": 5000.0,\r\n        \"tipo\": \"CtaFija\",\r\n        \"estado\": \"Activo\",\r\n        \"oficina\": \"857\"\r\n}",
							"options": {
								"raw": {
									"language": "json"
								}
							}
						},
						"url": {
							"raw": "http://localhost:9000/api/v1/clientes/{{documentoCliente}}/cuentas/",
							"protocol": "http",
							"host": [
								"localhost"
							],
							"port": "9000",
							"path": [
								"api",
								"v1",
								"clientes",
								"{{documentoCliente}}",
								"cuentas",
								""
							]
						}
					},
					"response": []
				},
				{
					"name": "Emparchar Cuenta cliene",
					"request": {
						"method": "PATCH",
						"header": [],
						"body": {
							"mode": "raw",
							"raw": "{\r\n        \"numero\": \"1234567890003819\",\r\n        \"oficina\": \"241\"\r\n}\t",
							"options": {
								"raw": {
									"language": "json"
								}
							}
						},
						"url": {
							"raw": "http://localhost:9000/api/v1/clientes/{{documentoCliente}}/cuentas/",
							"protocol": "http",
							"host": [
								"localhost"
							],
							"port": "9000",
							"path": [
								"api",
								"v1",
								"clientes",
								"{{documentoCliente}}",
								"cuentas",
								""
							]
						}
					},
					"response": []
				}
			],
			"protocolProfileBehavior": {}
		}
	],
	"protocolProfileBehavior": {}
}